{"results":[{"vote_count":381,"id":284053,"video":false,"vote_average":7.5,"title":"Thor: Ragnarok","popularity":412.327083,"poster_path":"\/oSLd5GYGsiGgzDPKTwQh7wamO8t.jpg","original_language":"en","original_title":"Thor: Ragnarok","genre_ids":[28,12,14,878],"backdrop_path":"\/wBzMnQ01R9w58W6ucltdYfOyP4j.jpg","adult":false,"overview":"Thor is imprisoned on the other side of the universe and finds himself in a race against time to get back to Asgard to stop Ragnarok, the destruction of his homeworld and the end of Asgardian civilization, at the hands of an all-powerful new threat, the ruthless Hela.","release_date":"2017-10-25"},{"vote_count":127,"id":440021,"video":false,"vote_average":6.6,"title":"Happy Death Day","popularity":298.879502,"poster_path":"\/cTaEIUYTt52ooq9quVbAQ7NpGwo.jpg","original_language":"en","original_title":"Happy Death Day","genre_ids":[27,9648,53],"backdrop_path":"\/eGx5OfOdvM0gkHdmkLe3hcJuEIT.jpg","adult":false,"overview":"A college student relives the day of her murder over and over again as she tries to discover her killer's identity.","release_date":"2017-10-12"},{"vote_count":49,"id":298250,"video":false,"vote_average":5.6,"title":"Jigsaw","popularity":263.100803,"poster_path":"\/zUbUtxiTdEgWnkXY945gtYYqBZ1.jpg","original_language":"en","original_title":"Jigsaw","genre_ids":[27,53],"backdrop_path":"\/ytKpFaLMpFWnuSXStz1GHrtTt6R.jpg","adult":false,"overview":"Dead bodies begin to turn up all over the city, each meeting their demise in a variety of grisly ways. All investigations begin to point the finger at deceased killer John Kramer.","release_date":"2017-10-20"},{"vote_count":113,"id":274855,"video":false,"vote_average":5.5,"title":"Geostorm","popularity":236.696903,"poster_path":"\/nrsx0jEaBgXq4PWo7SooSnYJTv.jpg","original_language":"en","original_title":"Geostorm","genre_ids":[53,28,878],"backdrop_path":"\/lhTtnsPmEYUJB7nOaTKJzYoxJ7X.jpg","adult":false,"overview":"Gerard Butler playing a stubborn but charming satellite designer who, when the world’s climate-controlling satellites malfunction, has to work together with his estranged brother to save the world from a man-made storm of epic proportions. A trip into space follows, while on Earth a plot to assassinate the president begins to unfold.","release_date":"2017-10-13"},{"vote_count":22,"id":399057,"video":false,"vote_average":6.1,"title":"The Killing of a Sacred Deer","popularity":194.251941,"poster_path":"\/lZ9I4Lv0QtdrykZ8pF42KJAdcg4.jpg","original_language":"en","original_title":"The Killing of a Sacred Deer","genre_ids":[53,27,18,9648],"backdrop_path":"\/854uDv6rzbwF82jOtFe931SMrRs.jpg","adult":false,"overview":"A teenager's attempts to bring a brilliant surgeon into his dysfunctional family take an unexpected turn.","release_date":"2017-10-20"},{"vote_count":122,"id":372343,"video":false,"vote_average":5.1,"title":"The Snowman","popularity":150.407178,"poster_path":"\/bQHgpTVsAWjNQWS0frsl7DlzLX1.jpg","original_language":"en","original_title":"The Snowman","genre_ids":[80,18,27,9648,53],"backdrop_path":"\/tAg6KUBANIVbYUpTHy5oKibhhw3.jpg","adult":false,"overview":"Detective Harry Hole investigates the disappearance of a woman whose pink scarf is found wrapped around an ominous looking snowman.","release_date":"2017-10-12"},{"vote_count":13,"id":395458,"video":false,"vote_average":3.6,"title":"Suburbicon","popularity":146.158287,"poster_path":"\/a3IHgSwO5jWPLcGjKqbQ7pxVGkq.jpg","original_language":"en","original_title":"Suburbicon","genre_ids":[28,35,80,9648],"backdrop_path":"\/zA5zlFVa76LdHmlFQrXaBW4XSvG.jpg","adult":false,"overview":"A crime mystery set in the quiet family town of Suburbicon during the 1950s, where the best and worst of humanity is hilariously reflected through the deeds of seemingly ordinary people. When a home invasion turns deadly, a picture-perfect family turns to blackmail, revenge, and murder.","release_date":"2017-10-27"},{"vote_count":56,"id":390062,"video":false,"vote_average":5.9,"title":"Jungle","popularity":136.134695,"poster_path":"\/tDgxknTVwrScxpCYyGUjXSn5NRk.jpg","original_language":"en","original_title":"Jungle","genre_ids":[12,18,53],"backdrop_path":"\/go1a6YwrVTMrNNIfaRpBRp5pIzV.jpg","adult":false,"overview":"A mysterious guide escorts an enthusiastic adventurer and his friend into the Amazon jungle, but their journey turns into a terrifying ordeal as the darkest elements of human nature and the deadliest threats of the wild force them to fight for survival.","release_date":"2017-10-20"},{"vote_count":562,"id":381283,"video":false,"vote_average":7,"title":"mother!","popularity":103.561879,"poster_path":"\/qmi2dsuoyzZdJ0WFZYQazbX8ILj.jpg","original_language":"en","original_title":"mother!","genre_ids":[18,27],"backdrop_path":"\/uuQpQ8VDOtVL2IO4y2pR58odkS5.jpg","adult":false,"overview":"A couple's relationship is tested when uninvited guests arrive at their home, disrupting their tranquil existence.","release_date":"2017-09-13"},{"vote_count":11,"id":413857,"video":false,"vote_average":4,"title":"Tragedy Girls","popularity":97.719175,"poster_path":"\/qMwuplUU4dg9JBBhgML42T6x0yJ.jpg","original_language":"en","original_title":"Tragedy Girls","genre_ids":[27,35],"backdrop_path":"\/t8mrHYeVzu4kTmgVArqL09hi5f6.jpg","adult":false,"overview":"Following two death-obsessed teenage girls who use their online show about real-life tragedies to send their small Midwestern town into a frenzy and cement their legacy as modern horror legends.","release_date":"2017-10-20"},{"vote_count":9,"id":395991,"video":false,"vote_average":4.8,"title":"Only the Brave","popularity":97.294733,"poster_path":"\/lC7WdUNLOJI3sllaDGNdFy2GT8g.jpg","original_language":"en","original_title":"Only the Brave","genre_ids":[18],"backdrop_path":"\/8wI0M7HDHhDsoxMCkcAVUx7O6DX.jpg","adult":false,"overview":"Members of the Granite Mountain Hotshots battle deadly wildfires to save an Arizona town.","release_date":"2017-10-19"},{"vote_count":7,"id":383709,"video":false,"vote_average":7,"title":"Wonderstruck","popularity":96.718343,"poster_path":"\/yjDAt9K3FKU1itABgIXl6YvLsVE.jpg","original_language":"en","original_title":"Wonderstruck","genre_ids":[18],"backdrop_path":"\/eUSNKg5tlocYAQs5nHlDxyAefuB.jpg","adult":false,"overview":"The story of a young boy in the Midwest is told simultaneously with a tale about a young girl in New York from fifty years ago as they both seek the same mysterious connection.","release_date":"2017-10-20"},{"vote_count":880,"id":341013,"video":false,"vote_average":6.2,"title":"Atomic Blonde","popularity":91.795511,"poster_path":"\/kV9R5h0Yct1kR8Hf8sJ1nX0Vz4x.jpg","original_language":"en","original_title":"Atomic Blonde","genre_ids":[53,9648,28],"backdrop_path":"\/lj3wkYkJGkfmDfXkKrVarSJpFD4.jpg","adult":false,"overview":"An undercover MI6 agent is sent to Berlin during the Cold War to investigate the murder of a fellow agent and recover a missing list of double agents.","release_date":"2017-07-26"},{"vote_count":50,"id":290512,"video":false,"vote_average":6.7,"title":"The Mountain Between Us","popularity":78.385361,"poster_path":"\/3XNfYTW4XGscI81nXMSWGsQ8cpu.jpg","original_language":"en","original_title":"The Mountain Between Us","genre_ids":[10749,12,18],"backdrop_path":"\/p7mUT8Usu1kNlfd1ugk6FwKejlo.jpg","adult":false,"overview":"Stranded after a tragic plane crash, two strangers must forge a connection to survive the extreme elements of a remote snow covered mountain. When they realize help is not coming, they embark on a perilous journey across the wilderness.","release_date":"2017-10-05"},{"vote_count":0,"id":141052,"video":false,"vote_average":0,"title":"Justice League","popularity":61.206124,"poster_path":"\/aQkEdqaXVxYObMLeoBSAUcgkxLs.jpg","original_language":"en","original_title":"Justice League","genre_ids":[28,12,14,878],"backdrop_path":"\/o5T8rZxoWSBMYwjsUFUqTt6uMQB.jpg","adult":false,"overview":"Fueled by his restored faith in humanity and inspired by Superman's selfless act, Bruce Wayne and Diana Prince assemble a team of metahumans consisting of Barry Allen, Arthur Curry, and Victor Stone to face the catastrophic threat of Steppenwolf and the Parademons who are on the hunt for three Mother Boxes on Earth.","release_date":"2017-11-15"},{"vote_count":26,"id":313943,"video":false,"vote_average":5.9,"title":"Revolt","popularity":55.372506,"poster_path":"\/eM2zipCkAXhp0BZF2noDp7bRFgV.jpg","original_language":"en","original_title":"Revolt","genre_ids":[878],"backdrop_path":"\/pJc4tR2aXYBBZDtpowamW0RL1KI.jpg","adult":false,"overview":"The story of humankind's last stand against a cataclysmic alien invasion. Set in the war-ravaged African countryside, a U.S. soldier and a French foreign aid worker team up to survive the alien onslaught. Their bond will be tested as they search for refuge across a crumbling world.","release_date":"2017-07-01"},{"vote_count":1,"id":431530,"video":false,"vote_average":10,"title":"A Bad Moms Christmas","popularity":55.219693,"poster_path":"\/gPNHolu7AGnrB7r5kvJRRTfwMFR.jpg","original_language":"en","original_title":"A Bad Moms Christmas","genre_ids":[35],"backdrop_path":"\/oR4u6ZlLx0nVUuq1OfYKuwVhtkg.jpg","adult":false,"overview":"The titular under-appreciated and over-burdened friends cope with the stresses of the most wonderful time of year as their own mothers visit for the holidays.","release_date":"2017-11-03"},{"vote_count":29,"id":379149,"video":false,"vote_average":6.5,"title":"The Foreigner","popularity":52.972409,"poster_path":"\/rwM4hzrmc5HiWfQD9ls9DL4QgGl.jpg","original_language":"en","original_title":"The Foreigner","genre_ids":[53,28],"backdrop_path":"\/p6anj7RQe03Gq2hSIxkkoozPMSH.jpg","adult":false,"overview":"Quan is a humble London businessman whose long-buried past erupts in a revenge-fueled vendetta when the only person left for him to love -- his teenage daughter -- dies in a senseless act of politically motivated terrorism. His relentless search to find the terrorists leads to a cat-and-mouse conflict with a British government official whose own past may hold the clues to the identities of the elusive killers.","release_date":"2017-09-24"},{"vote_count":26,"id":335360,"video":false,"vote_average":7.6,"title":"My Little Pony: The Movie","popularity":50.025759,"poster_path":"\/15WbvKx7B7FiLZheK49Xc05oRIX.jpg","original_language":"en","original_title":"My Little Pony: The Movie","genre_ids":[12,16,10751,14],"backdrop_path":"\/t9QTd0V3rbv6W25QbHJuC6zbIo1.jpg","adult":false,"overview":"A new dark force threatens Ponyville, and the Mane 6 – Twilight Sparkle, Applejack, Rainbow Dash, Pinkie Pie, Fluttershy and Rarity – embark on an unforgettable journey beyond Equestria where they meet new friends and exciting challenges on a quest to use the magic of friendship and save their home.","release_date":"2017-10-05"},{"vote_count":30,"id":400710,"video":false,"vote_average":4.8,"title":"Flatliners","popularity":47.425693,"poster_path":"\/e9NHATN0TJW6ZZPLLWFsKdilVl1.jpg","original_language":"en","original_title":"Flatliners","genre_ids":[18,878],"backdrop_path":"\/A9L23hwp8yLUbMci2jIkX4RV6kg.jpg","adult":false,"overview":"Five medical students, hoping to gain insight into the mystery of what lies beyond the confines of life, embark on a daring and dangerous experiment. By stopping their hearts for short periods of time, each triggers a near-death experience. As the investigation becomes more and more perilous, they are forced to confront the sins of their pasts, as well as contend with the paranormal consequences of trespassing to the other side.","release_date":"2017-09-28"}],"page":1,"total_results":337,"dates":{"maximum":"2017-11-25","minimum":"2017-10-29"},"total_pages":17}